<?xml version="1.0" encoding="utf-8"?>
<!-- Generator: Adobe Illustrator 25.2.0, SVG Export Plug-In . SVG Version: 6.00 Build 0)  -->
<svg version="1.1" id="Layer_1" xmlns="http://www.w3.org/2000/svg" xmlns:xlink="http://www.w3.org/1999/xlink" x="0px" y="0px"
	 viewBox="0 0 121 74" enable-background="new 0 0 121 74" xml:space="preserve">
<image overflow="visible" width="559" height="366" xlink:href="5476A94E.png"  transform="matrix(0.2645 0 0 0.2645 -12.9656 -13.4012)">
</image>
</svg>
