<svg xmlns="http://www.w3.org/2000/svg" xmlns:xlink="http://www.w3.org/1999/xlink" viewBox="0 0 1145 556">
  <defs>
    <style>
      .cls-1 {
        fill: none;
      }

      .cls-2 {
        isolation: isolate;
      }

      .cls-3 {
        clip-path: url(#clip-path);
      }

      .cls-4 {
        fill: url(#linear-gradient);
      }

      .cls-5 {
        mix-blend-mode: color-burn;
      }

      .cls-6 {
        fill: url(#linear-gradient-2);
      }

      .cls-7 {
        fill: url(#linear-gradient-3);
      }

      .cls-8 {
        fill: url(#linear-gradient-4);
      }

      .cls-9 {
        fill: url(#linear-gradient-5);
      }

      .cls-10 {
        fill: url(#linear-gradient-6);
      }

      .cls-11 {
        fill: url(#linear-gradient-7);
      }

      .cls-12 {
        fill: url(#linear-gradient-8);
      }

      .cls-13 {
        fill: url(#linear-gradient-9);
      }

      .cls-14 {
        fill: url(#linear-gradient-10);
      }

      .cls-15 {
        fill: url(#linear-gradient-11);
      }

      .cls-16 {
        fill: url(#linear-gradient-12);
      }

      .cls-17 {
        fill: url(#linear-gradient-13);
      }

      .cls-18 {
        fill: url(#linear-gradient-14);
      }

      .cls-19 {
        fill: url(#linear-gradient-15);
      }

      .cls-20 {
        fill: url(#linear-gradient-16);
      }

      .cls-21 {
        fill: url(#linear-gradient-17);
      }

      .cls-22 {
        fill: url(#linear-gradient-18);
      }

      .cls-23 {
        fill: url(#linear-gradient-19);
      }

      .cls-24 {
        fill: url(#linear-gradient-20);
      }

      .cls-25 {
        fill: url(#linear-gradient-21);
      }

      .cls-26 {
        fill: url(#linear-gradient-22);
      }

      .cls-27 {
        fill: url(#linear-gradient-23);
      }

      .cls-28 {
        fill: url(#linear-gradient-24);
      }

      .cls-29 {
        fill: url(#linear-gradient-25);
      }

      .cls-30 {
        fill: url(#linear-gradient-26);
      }

      .cls-31 {
        fill: url(#linear-gradient-27);
      }

      .cls-32 {
        fill: url(#linear-gradient-28);
      }

      .cls-33 {
        fill: url(#linear-gradient-29);
      }

      .cls-34 {
        fill: url(#linear-gradient-30);
      }

      .cls-35 {
        fill: url(#linear-gradient-31);
      }

      .cls-36 {
        fill: url(#linear-gradient-32);
      }

      .cls-37 {
        fill: url(#linear-gradient-33);
      }

      .cls-38 {
        fill: url(#linear-gradient-34);
      }

      .cls-39 {
        fill: url(#linear-gradient-35);
      }

      .cls-40 {
        fill: url(#linear-gradient-36);
      }

      .cls-41 {
        fill: url(#linear-gradient-37);
      }

      .cls-42 {
        fill: url(#linear-gradient-38);
      }

      .cls-43 {
        fill: url(#linear-gradient-39);
      }

      .cls-44 {
        fill: #c1c1c1;
        opacity: 0.8;
        mix-blend-mode: overlay;
      }

      .cls-45 {
        fill: #c33527;
        opacity: 0.75;
      }
    </style>
    <clipPath id="clip-path">
      <path class="cls-1" d="M64.55-.66H1081.37a62.16,62.16,0,0,1,62.16,62.16v432a62.16,62.16,0,0,1-62.16,62.16H64.55A62.12,62.12,0,0,1,2.43,493.55V61.46A62.12,62.12,0,0,1,64.55-.66Z"/>
    </clipPath>
    <linearGradient id="linear-gradient" x1="-2848.61" y1="-887.24" x2="-2848.61" y2="-243.7" gradientTransform="matrix(1, 0, 0, -1, 3420.19, -255.6)" gradientUnits="userSpaceOnUse">
      <stop offset="0" stop-color="#ed2c24" stop-opacity="0.75"/>
      <stop offset="0.12" stop-color="#ec3129" stop-opacity="0.76"/>
      <stop offset="0.27" stop-color="#eb3e37" stop-opacity="0.78"/>
      <stop offset="0.43" stop-color="#e8544e" stop-opacity="0.81"/>
      <stop offset="0.6" stop-color="#e4746f" stop-opacity="0.85"/>
      <stop offset="0.78" stop-color="#df9c99" stop-opacity="0.91"/>
      <stop offset="0.96" stop-color="#d8cccb" stop-opacity="0.98"/>
      <stop offset="1" stop-color="#d7d7d7"/>
    </linearGradient>
    <linearGradient id="linear-gradient-2" x1="-649.26" y1="1847.34" x2="-648.2" y2="1846.27" gradientTransform="translate(-205084.04 347440.44) rotate(180) scale(316 188)" gradientUnits="userSpaceOnUse">
      <stop offset="0" stop-color="#cbcbca"/>
      <stop offset="1" stop-color="#cdcccc"/>
    </linearGradient>
    <linearGradient id="linear-gradient-3" x1="-661.02" y1="1861.07" x2="-659.97" y2="1860.02" gradientTransform="translate(-126733.04 151095.44) rotate(180) scale(193 81)" gradientUnits="userSpaceOnUse">
      <stop offset="0" stop-color="#dad9d8"/>
      <stop offset="1" stop-color="#e0e1e0"/>
    </linearGradient>
    <linearGradient id="linear-gradient-4" x1="-649.08" y1="1842.82" x2="-648.03" y2="1841.77" gradientTransform="translate(-208454.04 641486.44) rotate(180) scale(322 348)" gradientUnits="userSpaceOnUse">
      <stop offset="0" stop-color="#dcdcdc"/>
      <stop offset="1" stop-color="#949494"/>
    </linearGradient>
    <linearGradient id="linear-gradient-5" x1="-666.46" y1="1841.76" x2="-665.32" y2="1840.62" gradientTransform="translate(-106232.04 788446.44) rotate(180) scale(160 428)" gradientUnits="userSpaceOnUse">
      <stop offset="0" stop-color="#676767"/>
      <stop offset="1" stop-color="#969696"/>
    </linearGradient>
    <linearGradient id="linear-gradient-6" x1="-681.57" y1="1841.37" x2="-680.54" y2="1840.34" gradientTransform="translate(-75397.04 792120.44) rotate(180) scale(111 430)" gradientUnits="userSpaceOnUse">
      <stop offset="0" stop-color="#888"/>
      <stop offset="1" stop-color="#969595"/>
    </linearGradient>
    <linearGradient id="linear-gradient-7" x1="-645.23" y1="1848.8" x2="-644.18" y2="1847.74" gradientTransform="translate(-268184.04 301540.44) rotate(180) scale(416 163)" gradientUnits="userSpaceOnUse">
      <stop offset="0" stop-color="#c2c2c2"/>
      <stop offset="1" stop-color="#c6c5c4"/>
    </linearGradient>
    <linearGradient id="linear-gradient-8" x1="-671.57" y1="1859.1" x2="-670.48" y2="1858.02" gradientTransform="translate(-93877.04 163866.44) rotate(180) scale(141 88)" gradientUnits="userSpaceOnUse">
      <stop offset="0" stop-color="#dcdcdc"/>
      <stop offset="1" stop-color="#e8e7e7"/>
    </linearGradient>
    <linearGradient id="linear-gradient-9" x1="-662.12" y1="1850.33" x2="-661.02" y2="1849.24" gradientTransform="translate(-121685.04 274107.44) rotate(180) scale(185 148)" gradientUnits="userSpaceOnUse">
      <stop offset="0" stop-color="#dfdfde"/>
      <stop offset="1" stop-color="#ebebeb"/>
    </linearGradient>
    <linearGradient id="linear-gradient-10" x1="-719.14" y1="1842.57" x2="-718.09" y2="1841.52" gradientTransform="translate(-45290.04 624635.44) rotate(180) scale(64 339)" gradientUnits="userSpaceOnUse">
      <stop offset="0" stop-color="#ececec"/>
      <stop offset="1" stop-color="#e9e9e9"/>
    </linearGradient>
    <linearGradient id="linear-gradient-11" x1="-647.09" y1="1848.64" x2="-645.99" y2="1847.54" gradientTransform="translate(-236218.04 312663.44) rotate(180) scale(366 169)" gradientUnits="userSpaceOnUse">
      <stop offset="0" stop-color="#e9e9e9"/>
      <stop offset="1" stop-color="#d6d6d6"/>
    </linearGradient>
    <linearGradient id="linear-gradient-12" x1="-659.56" y1="1842.17" x2="-658.47" y2="1841.08" gradientTransform="translate(-131943.04 709624.44) rotate(180) scale(201 385)" gradientUnits="userSpaceOnUse">
      <stop offset="0" stop-color="#bfbebe"/>
      <stop offset="1" stop-color="#4f4f4f"/>
    </linearGradient>
    <linearGradient id="linear-gradient-13" x1="-648.22" y1="1842.72" x2="-647.08" y2="1841.58" gradientTransform="translate(-220986.04 624635.44) rotate(180) scale(342 339)" gradientUnits="userSpaceOnUse">
      <stop offset="0" stop-color="#f1f1f1"/>
      <stop offset="1" stop-color="#e0e1e0"/>
    </linearGradient>
    <linearGradient id="linear-gradient-14" x1="-648.37" y1="1845.86" x2="-647.25" y2="1844.74" gradientTransform="translate(-220986.04 398555.44) rotate(180) scale(342 216)" gradientUnits="userSpaceOnUse">
      <stop offset="0" stop-color="#f0efef"/>
      <stop offset="1" stop-color="#e0e1e0"/>
    </linearGradient>
    <linearGradient id="linear-gradient-15" x1="-647.1" y1="1844.56" x2="-646.13" y2="1843.58" gradientTransform="translate(-236218.04 464903.44) rotate(180) scale(366 252)" gradientUnits="userSpaceOnUse">
      <stop offset="0" stop-color="#dfdfde"/>
      <stop offset="1" stop-color="#c1c1c1"/>
    </linearGradient>
    <linearGradient id="linear-gradient-16" x1="-671.66" y1="1844.46" x2="-670.59" y2="1843.4" gradientTransform="translate(-92893.04 479339.44) rotate(180) scale(139 260)" gradientUnits="userSpaceOnUse">
      <stop offset="0" stop-color="#e1e1e1"/>
      <stop offset="1" stop-color="#cdcdcd"/>
    </linearGradient>
    <linearGradient id="linear-gradient-17" x1="-656.41" y1="1844.12" x2="-655.33" y2="1843.04" gradientTransform="translate(-148604.04 479339.44) rotate(180) scale(227 260)" gradientUnits="userSpaceOnUse">
      <stop offset="0" stop-color="#c6c5c4"/>
      <stop offset="1" stop-color="#c1c1c1"/>
    </linearGradient>
    <linearGradient id="linear-gradient-18" x1="-661.18" y1="1845.42" x2="-660.09" y2="1844.32" gradientTransform="translate(-124000.04 426326.44) rotate(180) scale(188 231)" gradientUnits="userSpaceOnUse">
      <stop offset="0" stop-color="#b4b4b5"/>
      <stop offset="1" stop-color="#bfbebe"/>
    </linearGradient>
    <linearGradient id="linear-gradient-19" x1="-653.24" y1="1842.72" x2="-652.11" y2="1841.59" gradientTransform="translate(-169504.04 620816.44) rotate(180) scale(260 337)" gradientUnits="userSpaceOnUse">
      <stop offset="0" stop-color="#c1c1c1"/>
      <stop offset="1" stop-color="#c3c3c3"/>
    </linearGradient>
    <linearGradient id="linear-gradient-20" x1="-653.05" y1="1851.91" x2="-651.99" y2="1850.84" gradientTransform="translate(-169504.04 240789.44) rotate(180) scale(260 130)" gradientUnits="userSpaceOnUse">
      <stop offset="0" stop-color="#bebdbd"/>
      <stop offset="1" stop-color="#c2c2c2"/>
    </linearGradient>
    <linearGradient id="linear-gradient-21" x1="-641.95" y1="1846.18" x2="-640.91" y2="1845.14" gradientTransform="translate(-364995.04 397359.44) rotate(180) scale(571 215)" gradientUnits="userSpaceOnUse">
      <stop offset="0" stop-color="#575757"/>
      <stop offset="1" stop-color="#8c8c8c"/>
    </linearGradient>
    <linearGradient id="linear-gradient-22" x1="-641.64" y1="1844.58" x2="-640.55" y2="1843.49" gradientTransform="translate(-368213.04 500175.44) rotate(180) scale(576 271)" gradientUnits="userSpaceOnUse">
      <stop offset="0" stop-color="#929292"/>
      <stop offset="1" stop-color="#a4a3a3"/>
    </linearGradient>
    <linearGradient id="linear-gradient-23" x1="-653.82" y1="1844.28" x2="-652.66" y2="1843.12" gradientTransform="translate(-166486.04 500175.44) rotate(180) scale(256 271)" gradientUnits="userSpaceOnUse">
      <stop offset="0" stop-color="#c3c3c3"/>
      <stop offset="1" stop-color="#b9b9ba"/>
    </linearGradient>
    <linearGradient id="linear-gradient-24" x1="-653.77" y1="1842.32" x2="-652.68" y2="1841.24" gradientTransform="translate(-166486.04 709624.44) rotate(180) scale(256 385)" gradientUnits="userSpaceOnUse">
      <stop offset="0" stop-color="#545554"/>
      <stop offset="1" stop-color="#acacac"/>
    </linearGradient>
    <linearGradient id="linear-gradient-25" x1="-644.51" y1="1842.71" x2="-643.42" y2="1841.62" gradientTransform="translate(-284789.04 656020.44) rotate(180) scale(444 356)" gradientUnits="userSpaceOnUse">
      <stop offset="0" stop-color="#a4a3a3"/>
      <stop offset="1" stop-color="#c1c1c1"/>
    </linearGradient>
    <linearGradient id="linear-gradient-26" x1="-641.7" y1="1845.03" x2="-640.65" y2="1843.98" gradientTransform="translate(-368213.04 455896.44) rotate(180) scale(576 247)" gradientUnits="userSpaceOnUse">
      <stop offset="0" stop-color="#a8a7a7"/>
      <stop offset="1" stop-color="#c7c7c7"/>
    </linearGradient>
    <linearGradient id="linear-gradient-27" x1="-671.98" y1="1847.3" x2="-670.93" y2="1846.25" gradientTransform="translate(-93105.04 353024.44) rotate(180) scale(140 191)" gradientUnits="userSpaceOnUse">
      <stop offset="0" stop-color="#d1d1d1"/>
      <stop offset="1" stop-color="#cecece"/>
    </linearGradient>
    <linearGradient id="linear-gradient-28" x1="-656.35" y1="1850.94" x2="-655.33" y2="1849.92" gradientTransform="translate(-149353.04 261174.44) rotate(180) scale(229 141)" gradientUnits="userSpaceOnUse">
      <stop offset="0" stop-color="#d5d4d4"/>
      <stop offset="1" stop-color="#d5d5d5"/>
    </linearGradient>
    <linearGradient id="linear-gradient-29" x1="-656.53" y1="1843.23" x2="-655.37" y2="1842.07" gradientTransform="translate(-149353.04 586058.44) rotate(180) scale(229 318)" gradientUnits="userSpaceOnUse">
      <stop offset="0" stop-color="#e8e7e7"/>
      <stop offset="1" stop-color="#dad9d8"/>
    </linearGradient>
    <linearGradient id="linear-gradient-30" x1="-648.14" y1="1841.47" x2="-647.04" y2="1840.37" gradientTransform="translate(-220784.04 792120.44) rotate(180) scale(341 430)" gradientUnits="userSpaceOnUse">
      <stop offset="0" stop-color="#a8a7a7"/>
      <stop offset="1" stop-color="#9e9e9e"/>
    </linearGradient>
    <linearGradient id="linear-gradient-31" x1="-645.07" y1="1843.87" x2="-644.03" y2="1842.84" gradientTransform="translate(-268184.04 531266.44) rotate(180) scale(416 288)" gradientUnits="userSpaceOnUse">
      <stop offset="0" stop-color="#c7c6c5"/>
      <stop offset="1" stop-color="#cdcdcd"/>
    </linearGradient>
    <linearGradient id="linear-gradient-32" x1="-653.55" y1="1850.44" x2="-652.5" y2="1849.39" gradientTransform="translate(-170536.04 264598.44) rotate(180) scale(263 143)" gradientUnits="userSpaceOnUse">
      <stop offset="0" stop-color="#c7c6c5"/>
      <stop offset="1" stop-color="#cbcbca"/>
    </linearGradient>
    <linearGradient id="linear-gradient-33" x1="-653.53" y1="1842.34" x2="-652.39" y2="1841.2" gradientTransform="translate(-170536.04 683206.44) rotate(180) scale(263 371)" gradientUnits="userSpaceOnUse">
      <stop offset="0" stop-color="#c9c9c9"/>
      <stop offset="1" stop-color="#d3d3d3"/>
    </linearGradient>
    <linearGradient id="linear-gradient-34" x1="-657.83" y1="1854.98" x2="-656.76" y2="1853.92" gradientTransform="translate(-141552.04 202281.44) rotate(180) scale(217 109)" gradientUnits="userSpaceOnUse">
      <stop offset="0" stop-color="#c8c8c8"/>
      <stop offset="1" stop-color="#cacac9"/>
    </linearGradient>
    <linearGradient id="linear-gradient-35" x1="-650.28" y1="1842.08" x2="-649.21" y2="1841.01" gradientTransform="translate(-199190.04 683206.44) rotate(180) scale(308 371)" gradientUnits="userSpaceOnUse">
      <stop offset="0" stop-color="#dcdcdc"/>
      <stop offset="1" stop-color="#dfdfde"/>
    </linearGradient>
    <linearGradient id="linear-gradient-36" x1="-653.67" y1="1844.43" x2="-652.5" y2="1843.26" gradientTransform="translate(-168271.04 488697.44) rotate(180) scale(259 265)" gradientUnits="userSpaceOnUse">
      <stop offset="0" stop-color="#cfcfcf"/>
      <stop offset="1" stop-color="#dcdcdc"/>
    </linearGradient>
    <linearGradient id="linear-gradient-37" x1="-654.48" y1="1843.84" x2="-653.4" y2="1842.76" gradientTransform="translate(-159652.04 512680.44) rotate(180) scale(244 278)" gradientUnits="userSpaceOnUse">
      <stop offset="0" stop-color="#d2d2d2"/>
      <stop offset="1" stop-color="#dfdfde"/>
    </linearGradient>
    <linearGradient id="linear-gradient-38" x1="-662.39" y1="1842.61" x2="-661.26" y2="1841.49" gradientTransform="translate(-119127.04 620816.44) rotate(180) scale(180 337)" gradientUnits="userSpaceOnUse">
      <stop offset="0" stop-color="#c9c9c9"/>
      <stop offset="1" stop-color="#d1d1d1"/>
    </linearGradient>
    <linearGradient id="linear-gradient-39" x1="-661.78" y1="1847.59" x2="-660.68" y2="1846.49" gradientTransform="translate(-122364.04 321548.44) rotate(180) scale(185 174)" gradientUnits="userSpaceOnUse">
      <stop offset="0" stop-color="#d1d1d1"/>
      <stop offset="1" stop-color="#dededd"/>
    </linearGradient>
  </defs>
  <g class="cls-2">
    <g id="Layer_1" data-name="Layer 1">
      <g class="cls-3">
        <g>
          <rect class="cls-4" x="-19.28" y="-30.05" width="1181.71" height="658.94" transform="translate(1143.15 598.85) rotate(-180)"/>
          <g class="cls-5">
            <polygon class="cls-6" points="-19.28 164.97 5.87 150.42 92.45 173 -19.28 216.26 -19.28 164.97"/>
            <polygon id="triangle36" class="cls-7" points="831.99 388.78 822.37 343.63 599.9 416.77 831.99 388.78"/>
            <polygon id="triangle36-2" data-name="triangle36" class="cls-8" points="599.9 416.77 405.1 578.38 212.7 264.18 599.9 416.77"/>
            <polygon class="cls-9" points="243.34 628.89 212.7 264.18 405.1 578.38 293.24 628.89 243.34 628.89"/>
            <polygon class="cls-10" points="117.81 628.89 212.7 264.18 243.34 628.89 117.81 628.89"/>
            <polygon class="cls-11" points="-19.28 216.26 92.45 173 212.7 264.18 -19.28 290.14 -19.28 216.26"/>
            <polygon id="triangle36-3" data-name="triangle36" class="cls-12" points="822.37 343.63 715.34 264.18 652.81 283.14 822.37 343.63"/>
            <polygon id="triangle36-4" data-name="triangle36" class="cls-13" points="822.37 343.63 599.9 416.77 652.81 283.14 822.37 343.63"/>
            <polygon id="triangle36-5" data-name="triangle36" class="cls-14" points="729.77 -22.92 715.34 264.18 652.81 283.14 729.77 -22.92"/>
            <polygon id="triangle36-6" data-name="triangle36" class="cls-15" points="599.9 416.77 212.7 264.18 652.81 283.14 599.9 416.77"/>
            <polygon class="cls-16" points="470.75 628.89 405.1 578.38 599.9 416.77 628.52 628.89 470.75 628.89"/>
            <polygon id="triangle36-7" data-name="triangle36" class="cls-17" points="729.77 -22.92 652.81 283.14 318.52 55.62 729.77 -22.92"/>
            <polygon class="cls-18" points="714.84 -30.05 729.77 -22.92 318.52 55.62 391.95 -30.05 714.84 -30.05"/>
            <polygon id="triangle36-8" data-name="triangle36" class="cls-19" points="652.81 283.14 212.7 264.18 318.52 55.62 652.81 283.14"/>
            <polygon class="cls-20" points="391.95 -30.05 318.52 55.62 337.83 -30.05 391.95 -30.05"/>
            <polygon class="cls-21" points="337.83 -30.05 318.52 55.62 228.51 -30.05 337.83 -30.05"/>
            <polygon id="triangle36-9" data-name="triangle36" class="cls-22" points="212.7 264.18 92.45 173 318.52 55.62 212.7 264.18"/>
            <polygon class="cls-23" points="228.51 -30.05 318.52 55.62 5.87 150.42 60.79 -30.05 228.51 -30.05"/>
            <polygon id="triangle36-10" data-name="triangle36" class="cls-24" points="92.45 173 5.87 150.42 318.52 55.62 92.45 173"/>
            <polygon class="cls-25" points="1162.43 553.31 1162.43 620.39 996.6 628.89 922.23 628.89 1162.43 553.31"/>
            <polygon class="cls-26" points="1162.43 412.9 1162.43 553.31 922.23 628.89 906.33 628.89 831.99 388.78 1162.43 412.9"/>
            <polygon class="cls-27" points="901.27 628.89 599.9 416.77 831.99 388.78 906.33 628.89 901.27 628.89"/>
            <polygon class="cls-28" points="628.52 628.89 599.9 416.77 901.27 628.89 628.52 628.89"/>
            <polygon class="cls-29" points="1162.43 151.57 1162.43 288.05 990.72 216.33 1162.43 151.57"/>
            <polygon class="cls-30" points="1162.43 412.9 831.99 388.78 990.72 216.33 1162.43 288.05 1162.43 412.9"/>
            <polygon id="triangle36-11" data-name="triangle36" class="cls-31" points="831.99 388.78 822.37 343.63 990.72 216.33 831.99 388.78"/>
            <polygon id="triangle36-12" data-name="triangle36" class="cls-32" points="822.37 343.63 715.34 264.18 990.72 216.33 822.37 343.63"/>
            <polygon id="triangle36-13" data-name="triangle36" class="cls-33" points="729.77 -22.92 715.34 264.18 990.72 216.33 729.77 -22.92"/>
            <polygon class="cls-34" points="-19.28 411.28 212.7 264.18 117.81 628.89 55 628.89 -19.28 598.08 -19.28 411.28"/>
            <polygon class="cls-35" points="-19.28 290.14 212.7 264.18 -19.28 411.28 -19.28 290.14"/>
            <polygon class="cls-36" points="1162.43 70.25 1162.43 118.69 1041.22 119.73 1162.43 70.25"/>
            <polygon class="cls-37" points="1162.43 70.25 1041.22 119.73 1067.57 -30.05 1162.43 -30.05 1162.43 70.25"/>
            <polygon class="cls-38" points="1162.43 151.57 990.72 216.33 1041.22 119.73 1162.43 118.69 1162.43 151.57"/>
            <polygon class="cls-39" points="1067.57 -30.05 1041.22 119.73 729.77 -22.92 743.49 -30.05 1067.57 -30.05"/>
            <polygon id="triangle36-14" data-name="triangle36" class="cls-40" points="990.72 216.33 729.77 -22.92 1041.22 119.73 990.72 216.33"/>
            <polygon class="cls-41" points="-19.28 141.24 5.87 150.42 -19.28 164.97 -19.28 141.24"/>
            <polygon class="cls-42" points="60.79 -30.05 5.87 150.42 -19.28 118.53 -19.28 -30.05 60.79 -30.05"/>
            <polygon class="cls-43" points="-19.28 118.53 5.87 150.42 -19.28 141.24 -19.28 118.53"/>
          </g>
          <path class="cls-44" d="M1128.53,593.62l-38,35.27h.8l71.08-66v-.75ZM6,628.89l-25.3-30.72V599l24.6,29.87Zm-25.3-494.57L-7.42,156l-11.86-7.52v.66l11.09,7-11.09-2.44v.58l11.44,2.52-11.44,3.3v.59l12.13-3.49-12.13,29.17v1.36l12.56-30.2,35.81,117.3-.33-.24.48.88-48.52,55.22v.82l48.67-55.39L60.51,486.44l-79.79-10.81v.57L60.05,487l-.75.5.7-.18L30.52,520.12l-19.76,22-30-17.13v.64l29.89,17,28.1,86.22h.55L11.11,542.54,43.91,506l16.65-18.55V628.89h.52V487.27l217.7,141.62h1l-218.29-142,192.72-50.17,0,.21.3-.19,75.86,192.15h.56l-19-48.23L255.17,437.09l1.2.85-1.2-1.36h.23l-.06,0L773.59,371.6,500.07,565.79l-88.9,63.1h.95L774.25,371.81l-6.9,29.69L714.51,628.89H715l59.49-256,19.22,256h.51L775,372.36l58.47,106.9,81.85,149.63h.6L833.46,478.13,775.28,371.76l387.15,170.8v-.62l-36.86-16.26L776.18,371.54l386.25,18.63v-.58L938.28,378.78l-162.79-7.85.25-.17-.63.08L803,309.31l81.76-180.4.08.08,0-.08,112.53,85.74,165.05,125.77v-.7L958.87,184.62l-73.54-56,277.1-59.26v-.58L1041,94.72,885.35,128,903,104.92,1006.35-30h-.68L901.13,106.5l-16,20.87L916.85-30h-.53L884.53,127.88,736.33-30h-.74L884.14,128.26l-.12,0,.07.05L560,238.34l29.53-108.62L633-30h-.54L611.92,45.44,559.53,238.16l-58-82.42L431.24,56l86.6-65.92L544.27-30h-.91L431.12,55.39,429.74-30h-.51l1.36,84.46L399.45-30h-.55L430.29,55.1,325.27-30h-.87l40,32.46,66,53.52-102,87.85L292.17,79.86,229.82-30h-.61l60.07,105.9,38.62,68.08L-6.26,156.5,81.39-30h-.58L-6.64,156.08v0l-.07.16-12.56-23ZM326,144.57l-227.39,64-35.18,9.9-.12-.14,0,0-69-61.07.51.11-.58-.37Zm232.91,93.59L420.75,181.68l-91.52-37.43,1.51-.43-1.6.06,101.62-87.5.39,1.06v-.67l74.37,105.6Zm1.51,1.23-.08-.12L641.53,263l7.29,2.13L437.53,356.71l-179.95,78L527.22,260.1l32.35-21,.17.24.06-.23ZM882.11,129.61l-166.2,96.6-66.29,38.53-6.78-2-82.26-24L704,190.05ZM650.17,265.12l.31-.13-.12,0L884.09,129.1,774.84,370.15l-.05-.67-.22,1-.25-.45,0,.56ZM256.53,435.8l194.93-84.52,198.15-85.91L773.86,370.85l-.71,0,.46.2L579.56,395.33Zm-1.52-.07,73.52-291.16L547.26,234l11.57,4.73-.14,0,.28.08L381.8,353.62ZM176.66,347.3,63.82,219,328,144.6,254.47,435.78ZM62.34,486.08,123.41,445l62.53-4,65.7-4.21Zm189-49.82-127.86,8.18-93.09-168L253.79,436.1ZM30,276.94,123,444.64,61.08,486.27v-.19l-.09.1-13.9-94Zm-.11-1.47,33.44-56.21,95.49,108.6,94,106.87ZM-6.16,157.64,36.07,195,63,218.87l-33.34,56Z"/>
        </g>
      </g>
      <path class="cls-45" d="M64.55-.66H1081.37a62.16,62.16,0,0,1,62.16,62.16v432a62.16,62.16,0,0,1-62.16,62.16H64.55A62.12,62.12,0,0,1,2.43,493.55V61.46A62.12,62.12,0,0,1,64.55-.66Z"/>
    </g>
  </g>
</svg>
