<?xml version="1.0" encoding="utf-8"?>
<!-- Generator: Adobe Illustrator 25.2.0, SVG Export Plug-In . SVG Version: 6.00 Build 0)  -->
<svg version="1.1" id="Layer_1" xmlns="http://www.w3.org/2000/svg" xmlns:xlink="http://www.w3.org/1999/xlink" x="0px" y="0px"
	 viewBox="0 0 147 121" enable-background="new 0 0 147 121" xml:space="preserve">
<g>
	<g>
		<g>
			<g>
				<path fill="#FFFFFF" d="M128.3,105.1H18.8c-2,0-3.7-1.7-3.7-3.7V30c0-2,1.7-3.7,3.7-3.7h18.9c1,0,1.9,0.8,1.9,1.9
					c0,1-0.8,1.9-1.9,1.9H18.8l0,71.3l109.5,0l0-71.3l-18.6,0c-1,0-1.9-0.8-1.9-1.9c0-1,0.8-1.9,1.9-1.9h18.6c2,0,3.7,1.7,3.7,3.7
					v71.3C132.1,103.4,130.4,105.1,128.3,105.1z"/>
			</g>
		</g>
	</g>
	<g>
		<g>
			<g>
				<g>
					<path fill="#FFFFFF" d="M142.2,119.7l-16-11.5c-0.2,0-0.4-0.1-0.7-0.1H20.8c-0.3,0-0.5,0-0.7,0l-16,10.7L2,115.8l14.8-9.9
						c0.6-0.9,2.1-1.5,4-1.5h104.6c1.9,0,3.4,0.6,4,1.5l14.9,10.7L142.2,119.7z"/>
				</g>
			</g>
		</g>
		<g>
			<g>
				<g>
					<path fill="#FFFFFF" d="M143.3,120.1C143.3,120.1,143.3,120.1,143.3,120.1L3.1,119.3c-1,0-1.9-0.8-1.9-1.9c0-1,0.9-1.9,1.9-1.9
						l140.2,0.8c1,0,1.9,0.8,1.9,1.9C145.1,119.2,144.3,120.1,143.3,120.1z"/>
				</g>
			</g>
		</g>
	</g>
	<g>
		<g>
			<g>
				<path fill="#FFFFFF" d="M49.9,55.1c0,0-0.1,0-0.1,0c-0.9-0.1-1.7-0.2-2.6-0.4c-8.1-1.8-14-9.1-14-17.4c0-8.8,6.5-16.2,15-17.5
					c0.8-4,4.3-7.1,8.6-7.1c1.2,0,2.4,0.3,3.5,0.7c1.4-3.2,3.6-6.1,6.5-8.2c3.6-2.7,7.8-4.1,12.3-4.1c5.4,0,10.5,2.1,14.4,5.9
					c3.5,3.4,5.6,7.9,6,12.7c3.8,0.7,7.2,2.6,9.8,5.5c3,3.3,4.7,7.5,4.7,12c0,9.1-6.8,16.7-15.9,17.7C97.6,55,97,55,96.5,55
					c0,0,0,0,0,0c-1,0-1.8-0.8-1.9-1.8c0-1,0.8-1.9,1.8-1.9c0.4,0,0.8,0,1.2-0.1c7.2-0.7,12.6-6.7,12.6-14c0-7.3-5.5-13.3-12.7-14
					l-1.7-0.2l0-1.7c-0.1-9.1-7.6-16.5-16.7-16.5c-7.3,0-13.9,4.9-16,11.9l-0.8,2.7l-2.2-1.9c-0.9-0.8-2.1-1.2-3.3-1.2
					c-2.8,0-5,2.2-5,5c0,0,0,0,0,0.1v1.7l-1.7,0.1C42.7,23.9,37,30,37,37.4C37,44,41.6,49.8,48,51.1c0.7,0.1,1.4,0.2,2.1,0.3
					c1,0.1,1.8,1,1.7,2C51.7,54.4,50.9,55.1,49.9,55.1z"/>
			</g>
		</g>
	</g>
	<g>
		<g>
			<g>
				<path fill="#FFFFFF" d="M104.3,92.1H43.3c-0.8,0-1.4-0.6-1.4-1.4V75.8c0-0.8,0.6-1.4,1.4-1.4c0.8,0,1.4,0.6,1.4,1.4v13.5h58.2
					V75.8c0-0.8,0.6-1.4,1.4-1.4c0.8,0,1.4,0.6,1.4,1.4v14.9C105.8,91.4,105.1,92.1,104.3,92.1z"/>
			</g>
		</g>
	</g>
	<g>
		<g>
			<g>
				<path fill="#FFFFFF" d="M124,86.7c-0.6,0-1-0.4-1-1V35.2h-5.2c-0.6,0-1-0.4-1-1s0.4-1,1-1h6.2c0.6,0,1,0.4,1,1v51.5
					C125.1,86.3,124.6,86.7,124,86.7z"/>
			</g>
		</g>
	</g>
	<g>
		<g>
			<g>
				<path fill="#FFFFFF" d="M73.4,83.1C72.4,82.8,72,82,72,81c0-8.9,0-17.8,0-26.7c0-0.2,0-0.3,0-0.6c-0.2,0-0.3,0-0.5,0
					c-2.3,0-4.6,0-6.8,0c-1.6,0-2.8-0.8-3.4-2.1c-0.6-1.3-0.2-2.7,0.9-3.8c2.6-2.6,5.2-5.2,7.8-7.8c1.9-1.9,4.5-2.2,6.6-0.8
					c0.4,0.2,0.7,0.5,1,0.9c2.6,2.6,5.2,5.2,7.8,7.8c1.3,1.4,1.5,3.3,0.3,4.7c-0.7,0.8-1.5,1.2-2.6,1.2c-0.7,0-1.3,0-2,0
					c-1,0-1.8-0.8-1.7-1.8c0-1,0.8-1.7,1.8-1.7c0.5,0,1.1,0,1.6,0c-0.1-0.1-0.1-0.2-0.1-0.2c-2.5-2.5-5-5.1-7.6-7.6
					c-0.8-0.8-1.8-0.8-2.6,0c-2.5,2.6-5.1,5.1-7.6,7.7c0,0-0.1,0.1-0.1,0.2c0.2,0,0.4,0,0.5,0c2.2,0,4.4,0,6.6,0
					c2.2,0,3.7,1.5,3.7,3.7c0,9,0,18,0,27.1c0,1.1-0.4,1.8-1.4,2.2C73.9,83.1,73.7,83.1,73.4,83.1z"/>
			</g>
		</g>
	</g>
</g>
</svg>
